ACCOUNT CONFIRMED!
-------------------------------

Thank you *|USER_NAME|* to have confirmed your email.
Now your account is enabled for Tournaments.


-------------------------------

The Funny Gain Staff.