There are new Contests you might be interest in!


*|CONTESTS_TXT|*



** Don't forget to tell your friends!
------------------------------------------------------------

Share our App with your friends and tournaments will be even more Funny.


** Subscribe our newletter or follow us on Facebook
------------------------------------------------------------

http://www.funnygain.com
https://www.facebook.com/funnygain

------------------------------------------------------------
This email was sent to you from
Funny Gain S.r.l. · Strada Rovereta, 6 · San Marino 47891 · San Marino